Replication of Study ‘How Quick Decisions Illuminate Moral Character’ by Clayton R. Critcher, Yoel Inbar and David A. Pizarro (2013, Social Psychological and Personality Science)
…
    # Append the cleaned data from this file to the main cleaned_data tibble
    # Ensure rows with NAs are retained by not filtering them out
    cleaned_data <- bind_rows(cleaned_data, temp_cleaned)
  } else {
    # If attention check fails, log the file name (optional)
    message(paste("Attention check failed for file:", file))
  }
}

# View the final combined cleaned_data tibble
print(cleaned_data)

# A tibble: 95 × 22
   condition first_scenario Justin_response_Q1 Justin_response_Q2
   <fct>     <chr>                       <dbl>              <dbl>
 1 immoral   Justin                          7                  2
 2 moral     Justin                          7                  7
 3 immoral   Justin                          7                  3
 4 moral     Nate                            7                  7
 5 moral     Justin                          7                  6
 6 immoral   Nate                            7                  3
 7 immoral   Justin                          6                  3
 8 moral     Justin                          7                  7
 9 moral     Justin                          7                  6
10 moral     Justin                          7                  7
# ℹ 85 more rows
# ℹ 18 more variables: Justin_response_Q3 <dbl>, Justin_response_Q4 <dbl>,
#   Justin_response_Q5 <dbl>, Justin_response_Q6 <dbl>,
#   Justin_response_Q7 <dbl>, Justin_response_Q8 <dbl>,
#   Justin_response_Q9 <dbl>, Justin_response_Q10 <dbl>,
#   Nate_response_Q1 <dbl>, Nate_response_Q2 <dbl>, Nate_response_Q3 <dbl>,
#   Nate_response_Q4 <dbl>, Nate_response_Q5 <dbl>, Nate_response_Q6 <dbl>, …
…
